[{"id":1,"fecha":"5/14/2018","importe":4,"latitud":45.3969917,"longitud":14.392612,"ciudad":"Marčelji"},
{"id":2,"fecha":"10/4/2018","importe":59,"latitud":"-8.7581","longitud":"120.7293","ciudad":"Waekolong"},
{"id":3,"fecha":"7/26/2018","importe":9,"latitud":32.149961,"longitud":34.8838788,"ciudad":"Hod HaSharon"},
{"id":4,"fecha":"6/15/2018","importe":78,"latitud":51.8846508,"longitud":17.0729206,"ciudad":"Piaski"},
{"id":5,"fecha":"5/26/2018","importe":72,"latitud":37.1518793,"longitud":138.3591194,"ciudad":"Kanda"},
{"id":6,"fecha":"9/4/2018","importe":10,"latitud":9.49858,"longitud":50.8105261,"ciudad":"Bandarbeyla"},
{"id":7,"fecha":"9/14/2018","importe":81,"latitud":"9.82511","longitud":"169.31065","ciudad":"Likiep"},
{"id":8,"fecha":"5/12/2018","importe":95,"latitud":16.0213558,"longitud":100.417181,"ciudad":"Bang Mun Nak"},
{"id":9,"fecha":"4/6/2018","importe":79,"latitud":31.528572,"longitud":114.367092,"ciudad":"Pengdian"},
{"id":10,"fecha":"3/14/2018","importe":43,"latitud":59.3754793,"longitud":16.4764129,"ciudad":"Västerås"},
{"id":11,"fecha":"3/3/2019","importe":51,"latitud":39.1251493,"longitud":23.6799766,"ciudad":"Skópelos"},
{"id":12,"fecha":"9/29/2018","importe":68,"latitud":39.8088955,"longitud":-8.7332644,"ciudad":"Agodim"},
{"id":13,"fecha":"8/8/2018","importe":45,"latitud":27.6486636,"longitud":84.4172666,"ciudad":"Bharatpur"},
{"id":14,"fecha":"11/25/2018","importe":20,"latitud":58.7239855,"longitud":59.4504627,"ciudad":"Kachkanar"},
{"id":15,"fecha":"8/25/2018","importe":97,"latitud":13.3198572,"longitud":-87.1622344,"ciudad":"Ciudad Choluteca"},
{"id":16,"fecha":"11/22/2018","importe":40,"latitud":50.1527227,"longitud":13.9004377,"ciudad":"Nové Strašecí"},
{"id":17,"fecha":"11/25/2018","importe":47,"latitud":25.386379,"longitud":114.922922,"ciudad":"Xingfeng"},
{"id":18,"fecha":"4/29/2018","importe":56,"latitud":42.0298857,"longitud":24.2987265,"ciudad":"Peshtera"},
{"id":19,"fecha":"4/13/2018","importe":51,"latitud":-12.1966859,"longitud":44.3124186,"ciudad":"Mjamaoué"},
{"id":20,"fecha":"11/6/2018","importe":8,"latitud":48.1283188,"longitud":11.544489,"ciudad":"Youlan"},
{"id":21,"fecha":"6/17/2018","importe":19,"latitud":40.767544,"longitud":114.886335,"ciudad":"Tangjiakou"},
{"id":22,"fecha":"2/6/2019","importe":67,"latitud":34.9136229,"longitud":98.2113524,"ciudad":"Dongxiao"},
{"id":23,"fecha":"12/7/2018","importe":86,"latitud":33.423357,"longitud":109.152893,"ciudad":"Zhen’an"},
{"id":24,"fecha":"5/1/2018","importe":16,"latitud":43.3209022,"longitud":21.8957589,"ciudad":"Niš"},
{"id":25,"fecha":"3/27/2018","importe":82,"latitud":39.91983,"longitud":116.41571,"ciudad":"Sihe"},
{"id":26,"fecha":"6/29/2018","importe":9,"latitud":40.8338937,"longitud":22.3879813,"ciudad":"Ampeleíes"},
{"id":27,"fecha":"3/18/2018","importe":47,"latitud":-9.2786495,"longitud":-36.6150136,"ciudad":"Bom Conselho"},
{"id":28,"fecha":"11/4/2018","importe":60,"latitud":26.0765362,"longitud":119.2807519,"ciudad":"Rencun"},
{"id":29,"fecha":"12/29/2018","importe":71,"latitud":45.130739,"longitud":85.05131,"ciudad":"Xiaoguai"},
{"id":30,"fecha":"1/4/2019","importe":58,"latitud":36.5380709,"longitud":115.2792734,"ciudad":"Pengshi"},
{"id":31,"fecha":"4/7/2018","importe":24,"latitud":50.384945,"longitud":23.438111,"ciudad":"Bełżec"},
{"id":32,"fecha":"9/24/2018","importe":4,"latitud":10.1671173,"longitud":123.6152351,"ciudad":"Calidñgan"},
{"id":33,"fecha":"7/21/2018","importe":66,"latitud":-18.4785912,"longitud":-47.1978694,"ciudad":"Coromandel"},
{"id":34,"fecha":"9/4/2018","importe":63,"latitud":41.3349436,"longitud":-6.9646803,"ciudad":"Pereira"},
{"id":35,"fecha":"5/18/2018","importe":6,"latitud":38.9254193,"longitud":-9.3894213,"ciudad":"Pobral"},
{"id":36,"fecha":"5/25/2018","importe":25,"latitud":29.008818,"longitud":110.733813,"ciudad":"Yuanguping"},
{"id":37,"fecha":"8/28/2018","importe":33,"latitud":4.2399992,"longitud":13.4482868,"ciudad":"Doumé"},
{"id":38,"fecha":"12/15/2018","importe":47,"latitud":45.19045,"longitud":33.366867,"ciudad":"Yevpatoriya"},
{"id":39,"fecha":"1/4/2019","importe":84,"latitud":41.2166819,"longitud":-8.0597042,"ciudad":"Ribeiro"},
{"id":40,"fecha":"5/11/2018","importe":96,"latitud":-6.8903936,"longitud":107.5889804,"ciudad":"Sukajadi"},
{"id":41,"fecha":"1/31/2019","importe":26,"latitud":50.085781,"longitud":18.5296459,"ciudad":"Rybnik"},
{"id":42,"fecha":"6/5/2018","importe":91,"latitud":15.9535593,"longitud":121.1098151,"ciudad":"Bulo"},
{"id":43,"fecha":"5/24/2018","importe":34,"latitud":-20.1851206,"longitud":-44.7711099,"ciudad":"Carmo do Cajuru"},
{"id":44,"fecha":"10/13/2018","importe":16,"latitud":-8.1252687,"longitud":113.4329607,"ciudad":"Pondokdalem"},
{"id":45,"fecha":"12/2/2018","importe":93,"latitud":31.32847,"longitud":118.892085,"ciudad":"Gaocun"},
{"id":46,"fecha":"2/13/2019","importe":59,"latitud":31.574996,"longitud":35.149421,"ciudad":"Ash Shuyūkh"},
{"id":47,"fecha":"9/18/2018","importe":37,"latitud":55.6271504,"longitud":37.864193,"ciudad":"Kotel’niki"},
{"id":48,"fecha":"8/22/2018","importe":80,"latitud":48.5393826,"longitud":135.0394338,"ciudad":"Khabarovsk"},
{"id":49,"fecha":"11/2/2018","importe":69,"latitud":43.6297603,"longitud":0.5815411,"ciudad":"Auch"},
{"id":50,"fecha":"7/30/2018","importe":5,"latitud":14.4634704,"longitud":5.2501629,"ciudad":"Illéla"},
{"id":51,"fecha":"6/10/2018","importe":39,"latitud":36.055016,"longitud":107.372829,"ciudad":"Binglincha"},
{"id":52,"fecha":"8/8/2018","importe":70,"latitud":56.85206,"longitud":59.0476359,"ciudad":"Bisert’"},
{"id":53,"fecha":"1/1/2019","importe":7,"latitud":40.1578419,"longitud":44.0925766,"ciudad":"Zhdanov"},
{"id":54,"fecha":"1/2/2019","importe":64,"latitud":52.55694,"longitud":17.0351289,"ciudad":"Murowana Goślina"},
{"id":55,"fecha":"12/10/2018","importe":5,"latitud":49.3359789,"longitud":20.1084256,"ciudad":"Bukowina Tatrzańska"},
{"id":56,"fecha":"6/27/2018","importe":59,"latitud":49.1141224,"longitud":16.1902227,"ciudad":"Mohelno"},
{"id":57,"fecha":"6/19/2018","importe":71,"latitud":13.0742447,"longitud":101.0084698,"ciudad":"Ban Talat Bueng"},
{"id":58,"fecha":"2/11/2019","importe":70,"latitud":47.0739574,"longitud":28.6801952,"ciudad":"Străşeni"},
{"id":59,"fecha":"1/28/2019","importe":22,"latitud":41.244729,"longitud":-96.3966046,"ciudad":"Yutan"},
{"id":60,"fecha":"7/7/2018","importe":46,"latitud":58.3619916,"longitud":11.9203062,"ciudad":"Uddevalla"},
{"id":61,"fecha":"12/24/2018","importe":61,"latitud":37.0657211,"longitud":136.7827153,"ciudad":"Komoro"},
{"id":62,"fecha":"5/16/2018","importe":46,"latitud":32.910459,"longitud":119.85254,"ciudad":"Xinghua"},
{"id":63,"fecha":"10/14/2018","importe":27,"latitud":38.8478071,"longitud":-9.3384289,"ciudad":"Lameiras"},
{"id":64,"fecha":"3/28/2018","importe":27,"latitud":-6.279197,"longitud":106.832873,"ciudad":"Npongge"},
{"id":65,"fecha":"5/28/2018","importe":55,"latitud":"13.39028","longitud":"43.96833","ciudad":"Al Nashmah"},
{"id":66,"fecha":"7/29/2018","importe":13,"latitud":36.8079089,"longitud":139.9200321,"ciudad":"Yaita"},
{"id":67,"fecha":"6/5/2018","importe":24,"latitud":41.0562367,"longitud":-8.2439651,"ciudad":"Fornos"},
{"id":68,"fecha":"6/2/2018","importe":89,"latitud":31.2303904,"longitud":121.4737021,"ciudad":"Shanggu"},
{"id":69,"fecha":"4/20/2018","importe":41,"latitud":"-8.5774","longitud":"119.0069","ciudad":"Naebugis"},
{"id":70,"fecha":"5/28/2018","importe":74,"latitud":28.607879,"longitud":119.435806,"ciudad":"Lianzhu"},
{"id":71,"fecha":"8/4/2018","importe":98,"latitud":9.939624,"longitud":126.065213,"ciudad":"San Isidro"},
{"id":72,"fecha":"12/3/2018","importe":69,"latitud":46.1696293,"longitud":14.6907259,"ciudad":"Lukovica pri Domžalah"},
{"id":73,"fecha":"6/8/2018","importe":38,"latitud":-19.0195852,"longitud":-65.2619615,"ciudad":"Sucre"},
{"id":74,"fecha":"9/25/2018","importe":99,"latitud":36.6914464,"longitud":24.3935655,"ciudad":"Mílos"},
{"id":75,"fecha":"6/28/2018","importe":29,"latitud":50.4252048,"longitud":14.2604647,"ciudad":"Roudnice nad Labem"},
{"id":76,"fecha":"2/26/2019","importe":77,"latitud":34.326903,"longitud":108.117456,"ciudad":"Wugong"},
{"id":77,"fecha":"3/30/2018","importe":75,"latitud":6.4387946,"longitud":100.1947477,"ciudad":"Kangar"},
{"id":78,"fecha":"7/13/2018","importe":68,"latitud":12.7145722,"longitud":124.0576816,"ciudad":"Tinampo"},
{"id":79,"fecha":"3/2/2019","importe":55,"latitud":41.7678247,"longitud":123.2622257,"ciudad":"Liuhao"},
{"id":80,"fecha":"6/7/2018","importe":62,"latitud":12.8775114,"longitud":10.4565159,"ciudad":"Nguru"},
{"id":81,"fecha":"12/2/2018","importe":40,"latitud":50.1015135,"longitud":1.8573006,"ciudad":"Abbeville"},
{"id":82,"fecha":"6/29/2018","importe":40,"latitud":-3.411598,"longitud":114.8452,"ciudad":"Martapura"},
{"id":83,"fecha":"9/17/2018","importe":5,"latitud":"40.49155","longitud":"69.70245","ciudad":"Konsoy"},
{"id":84,"fecha":"5/10/2018","importe":47,"latitud":"34.58469","longitud":"68.95524","ciudad":"Chandal Bā’ī"},
{"id":85,"fecha":"7/23/2018","importe":37,"latitud":-7.1282614,"longitud":108.6591293,"ciudad":"Margacina"},
{"id":86,"fecha":"3/1/2019","importe":25,"latitud":-24.988061,"longitud":25.3430203,"ciudad":"Kanye"},
{"id":87,"fecha":"1/21/2019","importe":14,"latitud":5.5047222,"longitud":153.7133333,"ciudad":"Oneop"},
{"id":88,"fecha":"5/31/2018","importe":97,"latitud":-7.1557925,"longitud":113.5579698,"ciudad":"Galis"},
{"id":89,"fecha":"9/3/2018","importe":81,"latitud":38.1164434,"longitud":140.8492779,"ciudad":"Arai"},
{"id":90,"fecha":"7/9/2018","importe":61,"latitud":10.1558257,"longitud":-68.5634682,"ciudad":"Nirgua"},
{"id":91,"fecha":"7/26/2018","importe":68,"latitud":25.99296,"longitud":115.667678,"ciudad":"Kuantian"},
{"id":92,"fecha":"10/13/2018","importe":50,"latitud":45.2497275,"longitud":19.3967698,"ciudad":"Bačka Palanka"},
{"id":93,"fecha":"2/2/2019","importe":8,"latitud":-13.8556,"longitud":-73.758263,"ciudad":"Chalcos"},
{"id":94,"fecha":"7/2/2018","importe":75,"latitud":31.3211873,"longitud":121.2478052,"ciudad":"Zhangxiang"},
{"id":95,"fecha":"9/29/2018","importe":33,"latitud":38.2660853,"longitud":140.8914899,"ciudad":"Odawara"},
{"id":96,"fecha":"6/24/2018","importe":46,"latitud":59.4935321,"longitud":18.0655876,"ciudad":"Täby"},
{"id":97,"fecha":"5/17/2018","importe":46,"latitud":51.6715177,"longitud":35.4505878,"ciudad":"Borisovka"},
{"id":98,"fecha":"9/1/2018","importe":70,"latitud":42.8201977,"longitud":74.1122506,"ciudad":"Belovodskoye"},
{"id":99,"fecha":"3/7/2018","importe":22,"latitud":15.0186358,"longitud":-12.5441446,"ciudad":"Diawara"},
{"id":100,"fecha":"1/21/2019","importe":97,"latitud":4.54304,"longitud":-74.878165,"ciudad":"Piedras"}]